{
  "name": "React Workshop Exercises",
  "image": "mcr.microsoft.com/vscode/devcontainers/javascript-node:20-bullseye",
  "customizations": {
    "vscode": {
      "settings": {
        "editor.defaultFormatter": "esbenp.prettier-vscode",
        "editor.formatOnSave": true,
        "jest.enableCodeLens": false,
        "jest.rootPath": "20-evergreen/src",
        "jest.jestCommandLine": "npm run-script test --",
        "terminal.integrated.defaultProfile.linux": "zsh",
        "terminal.integrated.profiles.linux": {
          "zsh": {
            "path": "zsh"
          }
        },
        "workbench.colorCustomizations": {
          "titleBar.activeBackground": "#61DAFB",
          "titleBar.activeForeground": "#000000",
          "titleBar.inactiveBackground": "#61DAFB",
          "titleBar.inactiveForeground": "#000000"
        }
      },
      "extensions": [
        "dbaeumer.vscode-eslint",
        "esbenp.prettier-vscode",
        "GitHub.copilot",
        "Orta.vscode-jest",
        "WallabyJs.quokka-vscode"
      ]
    }
  },
  "forwardPorts": [
    3000,
    8000
  ],
  "portsAttributes": {
    "3000": {
      "label": "React Workshop Exercises",
      "onAutoForward": "notify"
    },
    "8000": {
      "label": "React Workshop Exercises esbuild",
      "onAutoForward": "notify"
    }
  },
  "remoteUser": "node",
  "mounts": [
    "source=reactive-workshop-node_modules,target=${containerWorkspaceFolder}/node_modules,type=volume"
  ],
  "postCreateCommand": "sudo chown node:node node_modules && npm ci"
}